<?xml version="1.0" encoding="utf-8"?>
<!-- Generator: Adobe Illustrator 22.0.0, SVG Export Plug-In . SVG Version: 6.00 Build 0)  -->
<svg version="1.1" id="Layer_1" xmlns="http://www.w3.org/2000/svg" xmlns:xlink="http://www.w3.org/1999/xlink" x="0px" y="0px"
	 viewBox="0 0 42.8 42.1" style="enable-background:new 0 0 42.8 42.1;" xml:space="preserve">
<style type="text/css">
	.st0{clip-path:url(#SVGID_2_);}
	.st1{clip-path:url(#SVGID_4_);fill:#FFFFFF;}
</style>
<g>
	<defs>
		<path id="SVGID_1_" d="M32.8,14.6l2-2c0.5-0.5,0.5-1.3,0-1.8c-0.5-0.5-1.3-0.5-1.8,0l-2,2c-2.6-2-5.9-3.3-9.5-3.3
			C12.9,9.5,5.9,16.5,5.9,25c0,8.5,6.9,15.4,15.5,15.4c8.5,0,15.4-6.9,15.4-15.4C36.8,21,35.3,17.3,32.8,14.6z M21.4,37.8
			c-7.1,0-12.9-5.8-12.9-12.9s5.8-12.9,12.9-12.9c7.1,0,12.9,5.8,12.9,12.9S28.5,37.8,21.4,37.8z M17.8,4.3c-0.7,0-1.3-0.6-1.3-1.3
			c0-0.7,0.6-1.3,1.3-1.3h6.7c0.7,0,1.3,0.6,1.3,1.3c0,0.7-0.6,1.3-1.3,1.3h-2.1v2.9c0,0.7-0.6,1.3-1.3,1.3c-0.7,0-1.3-0.6-1.3-1.3
			V4.3H17.8z M22.7,22.3c1,0.5,1.7,1.5,1.7,2.7c0,1.6-1.3,3-3,3c-1.6,0-3-1.3-3-3c0-1.2,0.7-2.2,1.7-2.7V16c0-0.7,0.6-1.3,1.3-1.3
			c0.7,0,1.3,0.6,1.3,1.3V22.3z"/>
	</defs>
	<clipPath id="SVGID_2_">
		<use xlink:href="#SVGID_1_"  style="overflow:visible;"/>
	</clipPath>
	<g class="st0">
		<defs>
			<rect id="SVGID_3_" x="-282.1" y="-147.3" width="1024" height="702"/>
		</defs>
		<clipPath id="SVGID_4_">
			<use xlink:href="#SVGID_3_"  style="overflow:visible;"/>
		</clipPath>
		<rect x="0.9" y="-3.3" class="st1" width="40.9" height="48.8"/>
	</g>
</g>
</svg>
