<?xml version="1.0" encoding="utf-8"?>
<!-- Generator: Adobe Illustrator 22.0.0, SVG Export Plug-In . SVG Version: 6.00 Build 0)  -->
<svg version="1.1" id="Layer_1" xmlns="http://www.w3.org/2000/svg" xmlns:xlink="http://www.w3.org/1999/xlink" x="0px" y="0px"
	 viewBox="0 0 9 10" style="enable-background:new 0 0 9 10;" xml:space="preserve">
<style type="text/css">
	.st0{clip-path:url(#SVGID_2_);}
	.st1{clip-path:url(#SVGID_4_);fill:#0DF751;}
</style>
<g>
	<defs>
		<path id="SVGID_1_" d="M4.7,8.6V2.2L7,4.6c0.1,0.1,0.4,0.1,0.5,0c0.1-0.1,0.1-0.4,0-0.5l-2.9-3C4.5,1,4.4,1,4.4,1
			C4.3,1,4.2,1,4.1,1.1l-3,3C1,4.2,1,4.3,1,4.4c0,0.1,0,0.2,0.1,0.3c0.1,0.1,0.4,0.1,0.5,0L4,2.2v6.4C4,8.8,4.1,9,4.3,9
			C4.5,9,4.7,8.8,4.7,8.6"/>
	</defs>
	<clipPath id="SVGID_2_">
		<use xlink:href="#SVGID_1_"  style="overflow:visible;"/>
	</clipPath>
	<g class="st0">
		<defs>
			<rect id="SVGID_3_" x="-886.7" y="-600.3" width="1024" height="702"/>
		</defs>
		<clipPath id="SVGID_4_">
			<use xlink:href="#SVGID_3_"  style="overflow:visible;"/>
		</clipPath>
		<rect x="-4" y="-4" class="st1" width="16.6" height="18"/>
	</g>
</g>
</svg>
